﻿First Name,Phone Number,Tag,Points,Credit,ExtraIdentifiers,ExtClubMemberID,MemberID,Birthday,Anniversary,Email Address
gal 328567,25421564,"[""b_2709""]",,,,,,14/01/1980,14/01/1980,gal328567@como.com
gal 328568,25421565,"[""b_2709""]",,,,,,14/01/1980,14/01/1980,gal328568@como.com
gal 328569,25421566,"[""b_2709""]",,,,,,14/01/1980,14/01/1980,gal328569@como.com
gal 328570,25421567,"[""b_2709""]",,,,,,14/01/1980,14/01/1980,gal328570@como.com
gal 328571,25421568,"[""b_2709""]",,,,,,14/01/1980,14/01/1980,gal328571@como.com
gal 328572,25421569,"[""b_2709""]",,,,,,14/01/1980,14/01/1980,gal328572@como.com
gal 328573,25421570,"[""b_2709""]",,,,,,14/01/1980,14/01/1980,gal328573@como.com
gal 328574,25421571,"[""b_2709""]",,,,,,14/01/1980,14/01/1980,gal328574@como.com
gal 328575,25421572,"[""b_2709""]",,,,,,14/01/1980,14/01/1980,gal328575@como.com
gal 328576,25421573,"[""b_2709""]",,,,,,14/01/1980,14/01/1980,gal328576@como.com
gal 328577,25421574,"[""b_2709""]",,,,,,14/01/1980,14/01/1980,gal328577@como.com
gal 328578,25421575,"[""b_2709""]",,,,,,14/01/1980,14/01/1980,gal328578@como.com
gal 328579,25421576,"[""b_2709""]",,,,,,14/01/1980,14/01/1980,gal328579@como.com
gal 328580,25421577,"[""b_2709""]",,,,,,14/01/1980,14/01/1980,gal328580@como.com
gal 328581,25421578,"[""b_2709""]",,,,,,14/01/1980,14/01/1980,gal328581@como.com
gal 328582,25421579,"[""b_2709""]",,,,,,14/01/1980,14/01/1980,gal328582@como.com
gal 328583,25421580,"[""b_2709""]",,,,,,14/01/1980,14/01/1980,gal328583@como.com
gal 328584,25421581,"[""b_2709""]",,,,,,14/01/1980,14/01/1980,gal328584@como.com
gal 328585,25421582,"[""b_2709""]",,,,,,14/01/1980,14/01/1980,gal328585@como.com
gal 328586,25421583,"[""b_2709""]",,,,,,14/01/1980,14/01/1980,gal328586@como.com
gal 328587,25421584,"[""b_2709""]",,,,,,14/01/1980,14/01/1980,gal328587@como.com
gal 328588,25421585,"[""b_2709""]",,,,,,14/01/1980,14/01/1980,gal328588@como.com
gal 328589,25421586,"[""b_2709""]",,,,,,14/01/1980,14/01/1980,gal328589@como.com
gal 328590,25421587,"[""b_2709""]",,,,,,14/01/1980,14/01/1980,gal328590@como.com
gal 328591,25421588,"[""b_2709""]",,,,,,14/01/1980,14/01/1980,gal328591@como.com
gal 328592,25421589,"[""b_2709""]",,,,,,14/01/1980,14/01/1980,gal328592@como.com
gal 328593,25421590,"[""b_2709""]",,,,,,14/01/1980,14/01/1980,gal328593@como.com
gal 328594,25421591,"[""b_2709""]",,,,,,14/01/1980,14/01/1980,gal328594@como.com
gal 328595,25421592,"[""b_2709""]",,,,,,14/01/1980,14/01/1980,gal328595@como.com
gal 328596,25421593,"[""b_2709""]",,,,,,14/01/1980,14/01/1980,gal328596@como.com
gal 328597,25421594,"[""b_2709""]",,,,,,14/01/1980,14/01/1980,gal328597@como.com
gal 328598,25421595,"[""b_2709""]",,,,,,14/01/1980,14/01/1980,gal328598@como.com
gal 328599,25421596,"[""b_2709""]",,,,,,14/01/1980,14/01/1980,gal328599@como.com
gal 328600,25421597,"[""b_2709""]",,,,,,14/01/1980,14/01/1980,gal328600@como.com
gal 328601,25421598,"[""b_2709""]",,,,,,14/01/1980,14/01/1980,gal328601@como.com
gal 328602,25421599,"[""b_2709""]",,,,,,14/01/1980,14/01/1980,gal328602@como.com
gal 328603,25421600,"[""b_2709""]",,,,,,14/01/1980,14/01/1980,gal328603@como.com
gal 328604,25421601,"[""b_2709""]",,,,,,14/01/1980,14/01/1980,gal328604@como.com
gal 328605,25421602,"[""b_2709""]",,,,,,14/01/1980,14/01/1980,gal328605@como.com
gal 328606,25421603,"[""b_2709""]",,,,,,14/01/1980,14/01/1980,gal328606@como.com
gal 328607,25421604,"[""b_2709""]",,,,,,14/01/1980,14/01/1980,gal328607@como.com
gal 328608,25421605,"[""b_2709""]",,,,,,14/01/1980,14/01/1980,gal328608@como.com
gal 328609,25421606,"[""b_2709""]",,,,,,14/01/1980,14/01/1980,gal328609@como.com
gal 328610,25421607,"[""b_2709""]",,,,,,14/01/1980,14/01/1980,gal328610@como.com
gal 328611,25421608,"[""b_2709""]",,,,,,14/01/1980,14/01/1980,gal328611@como.com
gal 328612,25421609,"[""b_2709""]",,,,,,14/01/1980,14/01/1980,gal328612@como.com
gal 328613,25421610,"[""b_2709""]",,,,,,14/01/1980,14/01/1980,gal328613@como.com
gal 328614,25421611,"[""b_2709""]",,,,,,14/01/1980,14/01/1980,gal328614@como.com
gal 328615,25421612,"[""b_2709""]",,,,,,14/01/1980,14/01/1980,gal328615@como.com
gal 328616,25421613,"[""b_2709""]",,,,,,14/01/1980,14/01/1980,gal328616@como.com
gal 328617,25421614,"[""b_2709""]",,,,,,14/01/1980,14/01/1980,gal328617@como.com
gal 328618,25421615,"[""b_2709""]",,,,,,14/01/1980,14/01/1980,gal328618@como.com
gal 328619,25421616,"[""b_2709""]",,,,,,14/01/1980,14/01/1980,gal328619@como.com
gal 328620,25421617,"[""b_2709""]",,,,,,14/01/1980,14/01/1980,gal328620@como.com
gal 328621,25421618,"[""b_2709""]",,,,,,14/01/1980,14/01/1980,gal328621@como.com
gal 328622,25421619,"[""b_2709""]",,,,,,14/01/1980,14/01/1980,gal328622@como.com
gal 328623,25421620,"[""b_2709""]",,,,,,14/01/1980,14/01/1980,gal328623@como.com
gal 328624,25421621,"[""b_2709""]",,,,,,14/01/1980,14/01/1980,gal328624@como.com
gal 328625,25421622,"[""b_2709""]",,,,,,14/01/1980,14/01/1980,gal328625@como.com
gal 328626,25421623,"[""b_2709""]",,,,,,14/01/1980,14/01/1980,gal328626@como.com
gal 328627,25421624,"[""b_2709""]",,,,,,14/01/1980,14/01/1980,gal328627@como.com
gal 328628,25421625,"[""b_2709""]",,,,,,14/01/1980,14/01/1980,gal328628@como.com
gal 328629,25421626,"[""b_2709""]",,,,,,14/01/1980,14/01/1980,gal328629@como.com
gal 328630,25421627,"[""b_2709""]",,,,,,14/01/1980,14/01/1980,gal328630@como.com
gal 328631,25421628,"[""b_2709""]",,,,,,14/01/1980,14/01/1980,gal328631@como.com
gal 328632,25421629,"[""b_2709""]",,,,,,14/01/1980,14/01/1980,gal328632@como.com
gal 328633,25421630,"[""b_2709""]",,,,,,14/01/1980,14/01/1980,gal328633@como.com
gal 328634,25421631,"[""b_2709""]",,,,,,14/01/1980,14/01/1980,gal328634@como.com
gal 328635,25421632,"[""b_2709""]",,,,,,14/01/1980,14/01/1980,gal328635@como.com
gal 328636,25421633,"[""b_2709""]",,,,,,14/01/1980,14/01/1980,gal328636@como.com
gal 328637,25421634,"[""b_2709""]",,,,,,14/01/1980,14/01/1980,gal328637@como.com
gal 328638,25421635,"[""b_2709""]",,,,,,14/01/1980,14/01/1980,gal328638@como.com
gal 328639,25421636,"[""b_2709""]",,,,,,14/01/1980,14/01/1980,gal328639@como.com
gal 328640,25421637,"[""b_2709""]",,,,,,14/01/1980,14/01/1980,gal328640@como.com
gal 328641,25421638,"[""b_2709""]",,,,,,14/01/1980,14/01/1980,gal328641@como.com
gal 328642,25421639,"[""b_2709""]",,,,,,14/01/1980,14/01/1980,gal328642@como.com
gal 328643,25421640,"[""b_2709""]",,,,,,14/01/1980,14/01/1980,gal328643@como.com
gal 328644,25421641,"[""b_2709""]",,,,,,14/01/1980,14/01/1980,gal328644@como.com
gal 328645,25421642,"[""b_2709""]",,,,,,14/01/1980,14/01/1980,gal328645@como.com
gal 328646,25421643,"[""b_2709""]",,,,,,14/01/1980,14/01/1980,gal328646@como.com
gal 328647,25421644,"[""b_2709""]",,,,,,14/01/1980,14/01/1980,gal328647@como.com
gal 328648,25421645,"[""b_2709""]",,,,,,14/01/1980,14/01/1980,gal328648@como.com
gal 328649,25421646,"[""b_2709""]",,,,,,14/01/1980,14/01/1980,gal328649@como.com
gal 328650,25421647,"[""b_2709""]",,,,,,14/01/1980,14/01/1980,gal328650@como.com
gal 328651,25421648,"[""b_2709""]",,,,,,14/01/1980,14/01/1980,gal328651@como.com
gal 328652,25421649,"[""b_2709""]",,,,,,14/01/1980,14/01/1980,gal328652@como.com
gal 328653,25421650,"[""b_2709""]",,,,,,14/01/1980,14/01/1980,gal328653@como.com
gal 328654,25421651,"[""b_2709""]",,,,,,14/01/1980,14/01/1980,gal328654@como.com
gal 328655,25421652,"[""b_2709""]",,,,,,14/01/1980,14/01/1980,gal328655@como.com
gal 328656,25421653,"[""b_2709""]",,,,,,14/01/1980,14/01/1980,gal328656@como.com
gal 328657,25421654,"[""b_2709""]",,,,,,14/01/1980,14/01/1980,gal328657@como.com
gal 328658,25421655,"[""b_2709""]",,,,,,14/01/1980,14/01/1980,gal328658@como.com
gal 328659,25421656,"[""b_2709""]",,,,,,14/01/1980,14/01/1980,gal328659@como.com
gal 328660,25421657,"[""b_2709""]",,,,,,14/01/1980,14/01/1980,gal328660@como.com
gal 328661,25421658,"[""b_2709""]",,,,,,14/01/1980,14/01/1980,gal328661@como.com
gal 328662,25421659,"[""b_2709""]",,,,,,14/01/1980,14/01/1980,gal328662@como.com
gal 328663,25421660,"[""b_2709""]",,,,,,14/01/1980,14/01/1980,gal328663@como.com
gal 328664,25421661,"[""b_2709""]",,,,,,14/01/1980,14/01/1980,gal328664@como.com
gal 328665,25421662,"[""b_2709""]",,,,,,14/01/1980,14/01/1980,gal328665@como.com
gal 328666,25421663,"[""b_2709""]",,,,,,14/01/1980,14/01/1980,gal328666@como.com
gal 328667,25421664,"[""b_2709""]",,,,,,14/01/1980,14/01/1980,gal328667@como.com
gal 328668,25421665,"[""b_2709""]",,,,,,14/01/1980,14/01/1980,gal328668@como.com
gal 328669,25421666,"[""b_2709""]",,,,,,14/01/1980,14/01/1980,gal328669@como.com
gal 328670,25421667,"[""b_2709""]",,,,,,14/01/1980,14/01/1980,gal328670@como.com
gal 328671,25421668,"[""b_2709""]",,,,,,14/01/1980,14/01/1980,gal328671@como.com
gal 328672,25421669,"[""b_2709""]",,,,,,14/01/1980,14/01/1980,gal328672@como.com
gal 328673,25421670,"[""b_2709""]",,,,,,14/01/1980,14/01/1980,gal328673@como.com
gal 328674,25421671,"[""b_2709""]",,,,,,14/01/1980,14/01/1980,gal328674@como.com
gal 328675,25421672,"[""b_2709""]",,,,,,14/01/1980,14/01/1980,gal328675@como.com
gal 328676,25421673,"[""b_2709""]",,,,,,14/01/1980,14/01/1980,gal328676@como.com
gal 328677,25421674,"[""b_2709""]",,,,,,14/01/1980,14/01/1980,gal328677@como.com
gal 328678,25421675,"[""b_2709""]",,,,,,14/01/1980,14/01/1980,gal328678@como.com
gal 328679,25421676,"[""b_2709""]",,,,,,14/01/1980,14/01/1980,gal328679@como.com
gal 328680,25421677,"[""b_2709""]",,,,,,14/01/1980,14/01/1980,gal328680@como.com
gal 328681,25421678,"[""b_2709""]",,,,,,14/01/1980,14/01/1980,gal328681@como.com
gal 328682,25421679,"[""b_2709""]",,,,,,14/01/1980,14/01/1980,gal328682@como.com
gal 328683,25421680,"[""b_2709""]",,,,,,14/01/1980,14/01/1980,gal328683@como.com
gal 328684,25421681,"[""b_2709""]",,,,,,14/01/1980,14/01/1980,gal328684@como.com
gal 328685,25421682,"[""b_2709""]",,,,,,14/01/1980,14/01/1980,gal328685@como.com
gal 328686,25421683,"[""b_2709""]",,,,,,14/01/1980,14/01/1980,gal328686@como.com
gal 328687,25421684,"[""b_2709""]",,,,,,14/01/1980,14/01/1980,gal328687@como.com
gal 328688,25421685,"[""b_2709""]",,,,,,14/01/1980,14/01/1980,gal328688@como.com
gal 328689,25421686,"[""b_2709""]",,,,,,14/01/1980,14/01/1980,gal328689@como.com
gal 328690,25421687,"[""b_2709""]",,,,,,14/01/1980,14/01/1980,gal328690@como.com
gal 328691,25421688,"[""b_2709""]",,,,,,14/01/1980,14/01/1980,gal328691@como.com
gal 328692,25421689,"[""b_2709""]",,,,,,14/01/1980,14/01/1980,gal328692@como.com
gal 328693,25421690,"[""b_2709""]",,,,,,14/01/1980,14/01/1980,gal328693@como.com
gal 328694,25421691,"[""b_2709""]",,,,,,14/01/1980,14/01/1980,gal328694@como.com
gal 328695,25421692,"[""b_2709""]",,,,,,14/01/1980,14/01/1980,gal328695@como.com
gal 328696,25421693,"[""b_2709""]",,,,,,14/01/1980,14/01/1980,gal328696@como.com
gal 328697,25421694,"[""b_2709""]",,,,,,14/01/1980,14/01/1980,gal328697@como.com
gal 328698,25421695,"[""b_2709""]",,,,,,14/01/1980,14/01/1980,gal328698@como.com
gal 328699,25421696,"[""b_2709""]",,,,,,14/01/1980,14/01/1980,gal328699@como.com
gal 328700,25421697,"[""b_2709""]",,,,,,14/01/1980,14/01/1980,gal328700@como.com
gal 328701,25421698,"[""b_2709""]",,,,,,14/01/1980,14/01/1980,gal328701@como.com
gal 328702,25421699,"[""b_2709""]",,,,,,14/01/1980,14/01/1980,gal328702@como.com
gal 328703,25421700,"[""b_2709""]",,,,,,14/01/1980,14/01/1980,gal328703@como.com
gal 328704,25421701,"[""b_2709""]",,,,,,14/01/1980,14/01/1980,gal328704@como.com
gal 328705,25421702,"[""b_2709""]",,,,,,14/01/1980,14/01/1980,gal328705@como.com
gal 328706,25421703,"[""b_2709""]",,,,,,14/01/1980,14/01/1980,gal328706@como.com
gal 328707,25421704,"[""b_2709""]",,,,,,14/01/1980,14/01/1980,gal328707@como.com
gal 328708,25421705,"[""b_2709""]",,,,,,14/01/1980,14/01/1980,gal328708@como.com
gal 328709,25421706,"[""b_2709""]",,,,,,14/01/1980,14/01/1980,gal328709@como.com
gal 328710,25421707,"[""b_2709""]",,,,,,14/01/1980,14/01/1980,gal328710@como.com
gal 328711,25421708,"[""b_2709""]",,,,,,14/01/1980,14/01/1980,gal328711@como.com
gal 328712,25421709,"[""b_2709""]",,,,,,14/01/1980,14/01/1980,gal328712@como.com
gal 328713,25421710,"[""b_2709""]",,,,,,14/01/1980,14/01/1980,gal328713@como.com
gal 328714,25421711,"[""b_2709""]",,,,,,14/01/1980,14/01/1980,gal328714@como.com
gal 328715,25421712,"[""b_2709""]",,,,,,14/01/1980,14/01/1980,gal328715@como.com
gal 328716,25421713,"[""b_2709""]",,,,,,14/01/1980,14/01/1980,gal328716@como.com
gal 328717,25421714,"[""b_2709""]",,,,,,14/01/1980,14/01/1980,gal328717@como.com
gal 328718,25421715,"[""b_2709""]",,,,,,14/01/1980,14/01/1980,gal328718@como.com
gal 328719,25421716,"[""b_2709""]",,,,,,14/01/1980,14/01/1980,gal328719@como.com
gal 328720,25421717,"[""b_2709""]",,,,,,14/01/1980,14/01/1980,gal328720@como.com
gal 328721,25421718,"[""b_2709""]",,,,,,14/01/1980,14/01/1980,gal328721@como.com
gal 328722,25421719,"[""b_2709""]",,,,,,14/01/1980,14/01/1980,gal328722@como.com
gal 328723,25421720,"[""b_2709""]",,,,,,14/01/1980,14/01/1980,gal328723@como.com
gal 328724,25421721,"[""b_2709""]",,,,,,14/01/1980,14/01/1980,gal328724@como.com
gal 328725,25421722,"[""b_2709""]",,,,,,14/01/1980,14/01/1980,gal328725@como.com
gal 328726,25421723,"[""b_2709""]",,,,,,14/01/1980,14/01/1980,gal328726@como.com
gal 328727,25421724,"[""b_2709""]",,,,,,14/01/1980,14/01/1980,gal328727@como.com
gal 328728,25421725,"[""b_2709""]",,,,,,14/01/1980,14/01/1980,gal328728@como.com
gal 328729,25421726,"[""b_2709""]",,,,,,14/01/1980,14/01/1980,gal328729@como.com
gal 328730,25421727,"[""b_2709""]",,,,,,14/01/1980,14/01/1980,gal328730@como.com
gal 328731,25421728,"[""b_2709""]",,,,,,14/01/1980,14/01/1980,gal328731@como.com
gal 328732,25421729,"[""b_2709""]",,,,,,14/01/1980,14/01/1980,gal328732@como.com
gal 328733,25421730,"[""b_2709""]",,,,,,14/01/1980,14/01/1980,gal328733@como.com
gal 328734,25421731,"[""b_2709""]",,,,,,14/01/1980,14/01/1980,gal328734@como.com
gal 328735,25421732,"[""b_2709""]",,,,,,14/01/1980,14/01/1980,gal328735@como.com
gal 328736,25421733,"[""b_2709""]",,,,,,14/01/1980,14/01/1980,gal328736@como.com
gal 328737,25421734,"[""b_2709""]",,,,,,14/01/1980,14/01/1980,gal328737@como.com
gal 328738,25421735,"[""b_2709""]",,,,,,14/01/1980,14/01/1980,gal328738@como.com
gal 328739,25421736,"[""b_2709""]",,,,,,14/01/1980,14/01/1980,gal328739@como.com
gal 328740,25421737,"[""b_2709""]",,,,,,14/01/1980,14/01/1980,gal328740@como.com
gal 328741,25421738,"[""b_2709""]",,,,,,14/01/1980,14/01/1980,gal328741@como.com
gal 328742,25421739,"[""b_2709""]",,,,,,14/01/1980,14/01/1980,gal328742@como.com
gal 328743,25421740,"[""b_2709""]",,,,,,14/01/1980,14/01/1980,gal328743@como.com
gal 328744,25421741,"[""b_2709""]",,,,,,14/01/1980,14/01/1980,gal328744@como.com
gal 328745,25421742,"[""b_2709""]",,,,,,14/01/1980,14/01/1980,gal328745@como.com
gal 328746,25421743,"[""b_2709""]",,,,,,14/01/1980,14/01/1980,gal328746@como.com
gal 328747,25421744,"[""b_2709""]",,,,,,14/01/1980,14/01/1980,gal328747@como.com
gal 328748,25421745,"[""b_2709""]",,,,,,14/01/1980,14/01/1980,gal328748@como.com
gal 328749,25421746,"[""b_2709""]",,,,,,14/01/1980,14/01/1980,gal328749@como.com
gal 328750,25421747,"[""b_2709""]",,,,,,14/01/1980,14/01/1980,gal328750@como.com
gal 328751,25421748,"[""b_2709""]",,,,,,14/01/1980,14/01/1980,gal328751@como.com
gal 328752,25421749,"[""b_2709""]",,,,,,14/01/1980,14/01/1980,gal328752@como.com
gal 328753,25421750,"[""b_2709""]",,,,,,14/01/1980,14/01/1980,gal328753@como.com
gal 328754,25421751,"[""b_2709""]",,,,,,14/01/1980,14/01/1980,gal328754@como.com
gal 328755,25421752,"[""b_2709""]",,,,,,14/01/1980,14/01/1980,gal328755@como.com
gal 328756,25421753,"[""b_2709""]",,,,,,14/01/1980,14/01/1980,gal328756@como.com
gal 328757,25421754,"[""b_2709""]",,,,,,14/01/1980,14/01/1980,gal328757@como.com
gal 328758,25421755,"[""b_2709""]",,,,,,14/01/1980,14/01/1980,gal328758@como.com
gal 328759,25421756,"[""b_2709""]",,,,,,14/01/1980,14/01/1980,gal328759@como.com
gal 328760,25421757,"[""b_2709""]",,,,,,14/01/1980,14/01/1980,gal328760@como.com
gal 328761,25421758,"[""b_2709""]",,,,,,14/01/1980,14/01/1980,gal328761@como.com
gal 328762,25421759,"[""b_2709""]",,,,,,14/01/1980,14/01/1980,gal328762@como.com
gal 328763,25421760,"[""b_2709""]",,,,,,14/01/1980,14/01/1980,gal328763@como.com
gal 328764,25421761,"[""b_2709""]",,,,,,14/01/1980,14/01/1980,gal328764@como.com
gal 328765,25421762,"[""b_2709""]",,,,,,14/01/1980,14/01/1980,gal328765@como.com
gal 328766,25421763,"[""b_2709""]",,,,,,14/01/1980,14/01/1980,gal328766@como.com
gal 328767,25421764,"[""b_2709""]",,,,,,14/01/1980,14/01/1980,gal328767@como.com
gal 328768,25421765,"[""b_2709""]",,,,,,14/01/1980,14/01/1980,gal328768@como.com
gal 328769,25421766,"[""b_2709""]",,,,,,14/01/1980,14/01/1980,gal328769@como.com
gal 328770,25421767,"[""b_2709""]",,,,,,14/01/1980,14/01/1980,gal328770@como.com
gal 328771,25421768,"[""b_2709""]",,,,,,14/01/1980,14/01/1980,gal328771@como.com
gal 328772,25421769,"[""b_2709""]",,,,,,14/01/1980,14/01/1980,gal328772@como.com
gal 328773,25421770,"[""b_2709""]",,,,,,14/01/1980,14/01/1980,gal328773@como.com
gal 328774,25421771,"[""b_2709""]",,,,,,14/01/1980,14/01/1980,gal328774@como.com
gal 328775,25421772,"[""b_2709""]",,,,,,14/01/1980,14/01/1980,gal328775@como.com
gal 328776,25421773,"[""b_2709""]",,,,,,14/01/1980,14/01/1980,gal328776@como.com
gal 328777,25421774,"[""b_2709""]",,,,,,14/01/1980,14/01/1980,gal328777@como.com
gal 328778,25421775,"[""b_2709""]",,,,,,14/01/1980,14/01/1980,gal328778@como.com
gal 328779,25421776,"[""b_2709""]",,,,,,14/01/1980,14/01/1980,gal328779@como.com
gal 328780,25421777,"[""b_2709""]",,,,,,14/01/1980,14/01/1980,gal328780@como.com
gal 328781,25421778,"[""b_2709""]",,,,,,14/01/1980,14/01/1980,gal328781@como.com
gal 328782,25421779,"[""b_2709""]",,,,,,14/01/1980,14/01/1980,gal328782@como.com
gal 328783,25421780,"[""b_2709""]",,,,,,14/01/1980,14/01/1980,gal328783@como.com
gal 328784,25421781,"[""b_2709""]",,,,,,14/01/1980,14/01/1980,gal328784@como.com
gal 328785,25421782,"[""b_2709""]",,,,,,14/01/1980,14/01/1980,gal328785@como.com
gal 328786,25421783,"[""b_2709""]",,,,,,14/01/1980,14/01/1980,gal328786@como.com
gal 328787,25421784,"[""b_2709""]",,,,,,14/01/1980,14/01/1980,gal328787@como.com
gal 328788,25421785,"[""b_2709""]",,,,,,14/01/1980,14/01/1980,gal328788@como.com
gal 328789,25421786,"[""b_2709""]",,,,,,14/01/1980,14/01/1980,gal328789@como.com
gal 328790,25421787,"[""b_2709""]",,,,,,14/01/1980,14/01/1980,gal328790@como.com
gal 328791,25421788,"[""b_2709""]",,,,,,14/01/1980,14/01/1980,gal328791@como.com
gal 328792,25421789,"[""b_2709""]",,,,,,14/01/1980,14/01/1980,gal328792@como.com
gal 328793,25421790,"[""b_2709""]",,,,,,14/01/1980,14/01/1980,gal328793@como.com
gal 328794,25421791,"[""b_2709""]",,,,,,14/01/1980,14/01/1980,gal328794@como.com
gal 328795,25421792,"[""b_2709""]",,,,,,14/01/1980,14/01/1980,gal328795@como.com
gal 328796,25421793,"[""b_2709""]",,,,,,14/01/1980,14/01/1980,gal328796@como.com
gal 328797,25421794,"[""b_2709""]",,,,,,14/01/1980,14/01/1980,gal328797@como.com
gal 328798,25421795,"[""b_2709""]",,,,,,14/01/1980,14/01/1980,gal328798@como.com
gal 328799,25421796,"[""b_2709""]",,,,,,14/01/1980,14/01/1980,gal328799@como.com
gal 328800,25421797,"[""b_2709""]",,,,,,14/01/1980,14/01/1980,gal328800@como.com
gal 328801,25421798,"[""b_2709""]",,,,,,14/01/1980,14/01/1980,gal328801@como.com
gal 328802,25421799,"[""b_2709""]",,,,,,14/01/1980,14/01/1980,gal328802@como.com
gal 328803,25421800,"[""b_2709""]",,,,,,14/01/1980,14/01/1980,gal328803@como.com
gal 328804,25421801,"[""b_2709""]",,,,,,14/01/1980,14/01/1980,gal328804@como.com
gal 328805,25421802,"[""b_2709""]",,,,,,14/01/1980,14/01/1980,gal328805@como.com
gal 328806,25421803,"[""b_2709""]",,,,,,14/01/1980,14/01/1980,gal328806@como.com
gal 328807,25421804,"[""b_2709""]",,,,,,14/01/1980,14/01/1980,gal328807@como.com
gal 328808,25421805,"[""b_2709""]",,,,,,14/01/1980,14/01/1980,gal328808@como.com
gal 328809,25421806,"[""b_2709""]",,,,,,14/01/1980,14/01/1980,gal328809@como.com
gal 328810,25421807,"[""b_2709""]",,,,,,14/01/1980,14/01/1980,gal328810@como.com
gal 328811,25421808,"[""b_2709""]",,,,,,14/01/1980,14/01/1980,gal328811@como.com
gal 328812,25421809,"[""b_2709""]",,,,,,14/01/1980,14/01/1980,gal328812@como.com
gal 328813,25421810,"[""b_2709""]",,,,,,14/01/1980,14/01/1980,gal328813@como.com
gal 328814,25421811,"[""b_2709""]",,,,,,14/01/1980,14/01/1980,gal328814@como.com
gal 328815,25421812,"[""b_2709""]",,,,,,14/01/1980,14/01/1980,gal328815@como.com
gal 328816,25421813,"[""b_2709""]",,,,,,14/01/1980,14/01/1980,gal328816@como.com
gal 328817,25421814,"[""b_2709""]",,,,,,14/01/1980,14/01/1980,gal328817@como.com
gal 328818,25421815,"[""b_2709""]",,,,,,14/01/1980,14/01/1980,gal328818@como.com
gal 328819,25421816,"[""b_2709""]",,,,,,14/01/1980,14/01/1980,gal328819@como.com
gal 328820,25421817,"[""b_2709""]",,,,,,14/01/1980,14/01/1980,gal328820@como.com
gal 328821,25421818,"[""b_2709""]",,,,,,14/01/1980,14/01/1980,gal328821@como.com
gal 328822,25421819,"[""b_2709""]",,,,,,14/01/1980,14/01/1980,gal328822@como.com
gal 328823,25421820,"[""b_2709""]",,,,,,14/01/1980,14/01/1980,gal328823@como.com
gal 328824,25421821,"[""b_2709""]",,,,,,14/01/1980,14/01/1980,gal328824@como.com
gal 328825,25421822,"[""b_2709""]",,,,,,14/01/1980,14/01/1980,gal328825@como.com
gal 328826,25421823,"[""b_2709""]",,,,,,14/01/1980,14/01/1980,gal328826@como.com
gal 328827,25421824,"[""b_2709""]",,,,,,14/01/1980,14/01/1980,gal328827@como.com
gal 328828,25421825,"[""b_2709""]",,,,,,14/01/1980,14/01/1980,gal328828@como.com
gal 328829,25421826,"[""b_2709""]",,,,,,14/01/1980,14/01/1980,gal328829@como.com
gal 328830,25421827,"[""b_2709""]",,,,,,14/01/1980,14/01/1980,gal328830@como.com
gal 328831,25421828,"[""b_2709""]",,,,,,14/01/1980,14/01/1980,gal328831@como.com
gal 328832,25421829,"[""b_2709""]",,,,,,14/01/1980,14/01/1980,gal328832@como.com
gal 328833,25421830,"[""b_2709""]",,,,,,14/01/1980,14/01/1980,gal328833@como.com
gal 328834,25421831,"[""b_2709""]",,,,,,14/01/1980,14/01/1980,gal328834@como.com
gal 328835,25421832,"[""b_2709""]",,,,,,14/01/1980,14/01/1980,gal328835@como.com
gal 328836,25421833,"[""b_2709""]",,,,,,14/01/1980,14/01/1980,gal328836@como.com
gal 328837,25421834,"[""b_2709""]",,,,,,14/01/1980,14/01/1980,gal328837@como.com
gal 328838,25421835,"[""b_2709""]",,,,,,14/01/1980,14/01/1980,gal328838@como.com
gal 328839,25421836,"[""b_2709""]",,,,,,14/01/1980,14/01/1980,gal328839@como.com
gal 328840,25421837,"[""b_2709""]",,,,,,14/01/1980,14/01/1980,gal328840@como.com
gal 328841,25421838,"[""b_2709""]",,,,,,14/01/1980,14/01/1980,gal328841@como.com
gal 328842,25421839,"[""b_2709""]",,,,,,14/01/1980,14/01/1980,gal328842@como.com
gal 328843,25421840,"[""b_2709""]",,,,,,14/01/1980,14/01/1980,gal328843@como.com
gal 328844,25421841,"[""b_2709""]",,,,,,14/01/1980,14/01/1980,gal328844@como.com
gal 328845,25421842,"[""b_2709""]",,,,,,14/01/1980,14/01/1980,gal328845@como.com
gal 328846,25421843,"[""b_2709""]",,,,,,14/01/1980,14/01/1980,gal328846@como.com
gal 328847,25421844,"[""b_2709""]",,,,,,14/01/1980,14/01/1980,gal328847@como.com
gal 328848,25421845,"[""b_2709""]",,,,,,14/01/1980,14/01/1980,gal328848@como.com
gal 328849,25421846,"[""b_2709""]",,,,,,14/01/1980,14/01/1980,gal328849@como.com
gal 328850,25421847,"[""b_2709""]",,,,,,14/01/1980,14/01/1980,gal328850@como.com
gal 328851,25421848,"[""b_2709""]",,,,,,14/01/1980,14/01/1980,gal328851@como.com
gal 328852,25421849,"[""b_2709""]",,,,,,14/01/1980,14/01/1980,gal328852@como.com
gal 328853,25421850,"[""b_2709""]",,,,,,14/01/1980,14/01/1980,gal328853@como.com
gal 328854,25421851,"[""b_2709""]",,,,,,14/01/1980,14/01/1980,gal328854@como.com
gal 328855,25421852,"[""b_2709""]",,,,,,14/01/1980,14/01/1980,gal328855@como.com
gal 328856,25421853,"[""b_2709""]",,,,,,14/01/1980,14/01/1980,gal328856@como.com
gal 328857,25421854,"[""b_2709""]",,,,,,14/01/1980,14/01/1980,gal328857@como.com
gal 328858,25421855,"[""b_2709""]",,,,,,14/01/1980,14/01/1980,gal328858@como.com
gal 328859,25421856,"[""b_2709""]",,,,,,14/01/1980,14/01/1980,gal328859@como.com
gal 328860,25421857,"[""b_2709""]",,,,,,14/01/1980,14/01/1980,gal328860@como.com
gal 328861,25421858,"[""b_2709""]",,,,,,14/01/1980,14/01/1980,gal328861@como.com
gal 328862,25421859,"[""b_2709""]",,,,,,14/01/1980,14/01/1980,gal328862@como.com
gal 328863,25421860,"[""b_2709""]",,,,,,14/01/1980,14/01/1980,gal328863@como.com
gal 328864,25421861,"[""b_2709""]",,,,,,14/01/1980,14/01/1980,gal328864@como.com
gal 328865,25421862,"[""b_2709""]",,,,,,14/01/1980,14/01/1980,gal328865@como.com
gal 328866,25421863,"[""b_2709""]",,,,,,14/01/1980,14/01/1980,gal328866@como.com
gal 328867,25421864,"[""b_2709""]",,,,,,14/01/1980,14/01/1980,gal328867@como.com
gal 328868,25421865,"[""b_2709""]",,,,,,14/01/1980,14/01/1980,gal328868@como.com
gal 328869,25421866,"[""b_2709""]",,,,,,14/01/1980,14/01/1980,gal328869@como.com
gal 328870,25421867,"[""b_2709""]",,,,,,14/01/1980,14/01/1980,gal328870@como.com
gal 328871,25421868,"[""b_2709""]",,,,,,14/01/1980,14/01/1980,gal328871@como.com
gal 328872,25421869,"[""b_2709""]",,,,,,14/01/1980,14/01/1980,gal328872@como.com
gal 328873,25421870,"[""b_2709""]",,,,,,14/01/1980,14/01/1980,gal328873@como.com
gal 328874,25421871,"[""b_2709""]",,,,,,14/01/1980,14/01/1980,gal328874@como.com
gal 328875,25421872,"[""b_2709""]",,,,,,14/01/1980,14/01/1980,gal328875@como.com
gal 328876,25421873,"[""b_2709""]",,,,,,14/01/1980,14/01/1980,gal328876@como.com
gal 328877,25421874,"[""b_2709""]",,,,,,14/01/1980,14/01/1980,gal328877@como.com
gal 328878,25421875,"[""b_2709""]",,,,,,14/01/1980,14/01/1980,gal328878@como.com
gal 328879,25421876,"[""b_2709""]",,,,,,14/01/1980,14/01/1980,gal328879@como.com
gal 328880,25421877,"[""b_2709""]",,,,,,14/01/1980,14/01/1980,gal328880@como.com
gal 328881,25421878,"[""b_2709""]",,,,,,14/01/1980,14/01/1980,gal328881@como.com
gal 328882,25421879,"[""b_2709""]",,,,,,14/01/1980,14/01/1980,gal328882@como.com
gal 328883,25421880,"[""b_2709""]",,,,,,14/01/1980,14/01/1980,gal328883@como.com
gal 328884,25421881,"[""b_2709""]",,,,,,14/01/1980,14/01/1980,gal328884@como.com
gal 328885,25421882,"[""b_2709""]",,,,,,14/01/1980,14/01/1980,gal328885@como.com
gal 328886,25421883,"[""b_2709""]",,,,,,14/01/1980,14/01/1980,gal328886@como.com
gal 328887,25421884,"[""b_2709""]",,,,,,14/01/1980,14/01/1980,gal328887@como.com
gal 328888,25421885,"[""b_2709""]",,,,,,14/01/1980,14/01/1980,gal328888@como.com
gal 328889,25421886,"[""b_2709""]",,,,,,14/01/1980,14/01/1980,gal328889@como.com
gal 328890,25421887,"[""b_2709""]",,,,,,14/01/1980,14/01/1980,gal328890@como.com
gal 328891,25421888,"[""b_2709""]",,,,,,14/01/1980,14/01/1980,gal328891@como.com
gal 328892,25421889,"[""b_2709""]",,,,,,14/01/1980,14/01/1980,gal328892@como.com
gal 328893,25421890,"[""b_2709""]",,,,,,14/01/1980,14/01/1980,gal328893@como.com
gal 328894,25421891,"[""b_2709""]",,,,,,14/01/1980,14/01/1980,gal328894@como.com
gal 328895,25421892,"[""b_2709""]",,,,,,14/01/1980,14/01/1980,gal328895@como.com
gal 328896,25421893,"[""b_2709""]",,,,,,14/01/1980,14/01/1980,gal328896@como.com
gal 328897,25421894,"[""b_2709""]",,,,,,14/01/1980,14/01/1980,gal328897@como.com
gal 328898,25421895,"[""b_2709""]",,,,,,14/01/1980,14/01/1980,gal328898@como.com
gal 328899,25421896,"[""b_2709""]",,,,,,14/01/1980,14/01/1980,gal328899@como.com
gal 328900,25421897,"[""b_2709""]",,,,,,14/01/1980,14/01/1980,gal328900@como.com
gal 328901,25421898,"[""b_2709""]",,,,,,14/01/1980,14/01/1980,gal328901@como.com
gal 328902,25421899,"[""b_2709""]",,,,,,14/01/1980,14/01/1980,gal328902@como.com
gal 328903,25421900,"[""b_2709""]",,,,,,14/01/1980,14/01/1980,gal328903@como.com
gal 328904,25421901,"[""b_2709""]",,,,,,14/01/1980,14/01/1980,gal328904@como.com
gal 328905,25421902,"[""b_2709""]",,,,,,14/01/1980,14/01/1980,gal328905@como.com
gal 328906,25421903,"[""b_2709""]",,,,,,14/01/1980,14/01/1980,gal328906@como.com
gal 328907,25421904,"[""b_2709""]",,,,,,14/01/1980,14/01/1980,gal328907@como.com
gal 328908,25421905,"[""b_2709""]",,,,,,14/01/1980,14/01/1980,gal328908@como.com
gal 328909,25421906,"[""b_2709""]",,,,,,14/01/1980,14/01/1980,gal328909@como.com
gal 328910,25421907,"[""b_2709""]",,,,,,14/01/1980,14/01/1980,gal328910@como.com
gal 328911,25421908,"[""b_2709""]",,,,,,14/01/1980,14/01/1980,gal328911@como.com
gal 328912,25421909,"[""b_2709""]",,,,,,14/01/1980,14/01/1980,gal328912@como.com
gal 328913,25421910,"[""b_2709""]",,,,,,14/01/1980,14/01/1980,gal328913@como.com
gal 328914,25421911,"[""b_2709""]",,,,,,14/01/1980,14/01/1980,gal328914@como.com
gal 328915,25421912,"[""b_2709""]",,,,,,14/01/1980,14/01/1980,gal328915@como.com
gal 328916,25421913,"[""b_2709""]",,,,,,14/01/1980,14/01/1980,gal328916@como.com
gal 328917,25421914,"[""b_2709""]",,,,,,14/01/1980,14/01/1980,gal328917@como.com
gal 328918,25421915,"[""b_2709""]",,,,,,14/01/1980,14/01/1980,gal328918@como.com
gal 328919,25421916,"[""b_2709""]",,,,,,14/01/1980,14/01/1980,gal328919@como.com
gal 328920,25421917,"[""b_2709""]",,,,,,14/01/1980,14/01/1980,gal328920@como.com
gal 328921,25421918,"[""b_2709""]",,,,,,14/01/1980,14/01/1980,gal328921@como.com
gal 328922,25421919,"[""b_2709""]",,,,,,14/01/1980,14/01/1980,gal328922@como.com
gal 328923,25421920,"[""b_2709""]",,,,,,14/01/1980,14/01/1980,gal328923@como.com
gal 328924,25421921,"[""b_2709""]",,,,,,14/01/1980,14/01/1980,gal328924@como.com
gal 328925,25421922,"[""b_2709""]",,,,,,14/01/1980,14/01/1980,gal328925@como.com
gal 328926,25421923,"[""b_2709""]",,,,,,14/01/1980,14/01/1980,gal328926@como.com
gal 328927,25421924,"[""b_2709""]",,,,,,14/01/1980,14/01/1980,gal328927@como.com
gal 328928,25421925,"[""b_2709""]",,,,,,14/01/1980,14/01/1980,gal328928@como.com
gal 328929,25421926,"[""b_2709""]",,,,,,14/01/1980,14/01/1980,gal328929@como.com
gal 328930,25421927,"[""b_2709""]",,,,,,14/01/1980,14/01/1980,gal328930@como.com
gal 328931,25421928,"[""b_2709""]",,,,,,14/01/1980,14/01/1980,gal328931@como.com
gal 328932,25421929,"[""b_2709""]",,,,,,14/01/1980,14/01/1980,gal328932@como.com
gal 328933,25421930,"[""b_2709""]",,,,,,14/01/1980,14/01/1980,gal328933@como.com
gal 328934,25421931,"[""b_2709""]",,,,,,14/01/1980,14/01/1980,gal328934@como.com
gal 328935,25421932,"[""b_2709""]",,,,,,14/01/1980,14/01/1980,gal328935@como.com
gal 328936,25421933,"[""b_2709""]",,,,,,14/01/1980,14/01/1980,gal328936@como.com
gal 328937,25421934,"[""b_2709""]",,,,,,14/01/1980,14/01/1980,gal328937@como.com
gal 328938,25421935,"[""b_2709""]",,,,,,14/01/1980,14/01/1980,gal328938@como.com
gal 328939,25421936,"[""b_2709""]",,,,,,14/01/1980,14/01/1980,gal328939@como.com
gal 328940,25421937,"[""b_2709""]",,,,,,14/01/1980,14/01/1980,gal328940@como.com
gal 328941,25421938,"[""b_2709""]",,,,,,14/01/1980,14/01/1980,gal328941@como.com
gal 328942,25421939,"[""b_2709""]",,,,,,14/01/1980,14/01/1980,gal328942@como.com
gal 328943,25421940,"[""b_2709""]",,,,,,14/01/1980,14/01/1980,gal328943@como.com
gal 328944,25421941,"[""b_2709""]",,,,,,14/01/1980,14/01/1980,gal328944@como.com
gal 328945,25421942,"[""b_2709""]",,,,,,14/01/1980,14/01/1980,gal328945@como.com
gal 328946,25421943,"[""b_2709""]",,,,,,14/01/1980,14/01/1980,gal328946@como.com
gal 328947,25421944,"[""b_2709""]",,,,,,14/01/1980,14/01/1980,gal328947@como.com
gal 328948,25421945,"[""b_2709""]",,,,,,14/01/1980,14/01/1980,gal328948@como.com
gal 328949,25421946,"[""b_2709""]",,,,,,14/01/1980,14/01/1980,gal328949@como.com
gal 328950,25421947,"[""b_2709""]",,,,,,14/01/1980,14/01/1980,gal328950@como.com
gal 328951,25421948,"[""b_2709""]",,,,,,14/01/1980,14/01/1980,gal328951@como.com
gal 328952,25421949,"[""b_2709""]",,,,,,14/01/1980,14/01/1980,gal328952@como.com
gal 328953,25421950,"[""b_2709""]",,,,,,14/01/1980,14/01/1980,gal328953@como.com
gal 328954,25421951,"[""b_2709""]",,,,,,14/01/1980,14/01/1980,gal328954@como.com
gal 328955,25421952,"[""b_2709""]",,,,,,14/01/1980,14/01/1980,gal328955@como.com
gal 328956,25421953,"[""b_2709""]",,,,,,14/01/1980,14/01/1980,gal328956@como.com
gal 328957,25421954,"[""b_2709""]",,,,,,14/01/1980,14/01/1980,gal328957@como.com
gal 328958,25421955,"[""b_2709""]",,,,,,14/01/1980,14/01/1980,gal328958@como.com
gal 328959,25421956,"[""b_2709""]",,,,,,14/01/1980,14/01/1980,gal328959@como.com
gal 328960,25421957,"[""b_2709""]",,,,,,14/01/1980,14/01/1980,gal328960@como.com
gal 328961,25421958,"[""b_2709""]",,,,,,14/01/1980,14/01/1980,gal328961@como.com
gal 328962,25421959,"[""b_2709""]",,,,,,14/01/1980,14/01/1980,gal328962@como.com
gal 328963,25421960,"[""b_2709""]",,,,,,14/01/1980,14/01/1980,gal328963@como.com
gal 328964,25421961,"[""b_2709""]",,,,,,14/01/1980,14/01/1980,gal328964@como.com
gal 328965,25421962,"[""b_2709""]",,,,,,14/01/1980,14/01/1980,gal328965@como.com
gal 328966,25421963,"[""b_2709""]",,,,,,14/01/1980,14/01/1980,gal328966@como.com
gal 328967,25421964,"[""b_2709""]",,,,,,14/01/1980,14/01/1980,gal328967@como.com
gal 328968,25421965,"[""b_2709""]",,,,,,14/01/1980,14/01/1980,gal328968@como.com
gal 328969,25421966,"[""b_2709""]",,,,,,14/01/1980,14/01/1980,gal328969@como.com
gal 328970,25421967,"[""b_2709""]",,,,,,14/01/1980,14/01/1980,gal328970@como.com
gal 328971,25421968,"[""b_2709""]",,,,,,14/01/1980,14/01/1980,gal328971@como.com
gal 328972,25421969,"[""b_2709""]",,,,,,14/01/1980,14/01/1980,gal328972@como.com
gal 328973,25421970,"[""b_2709""]",,,,,,14/01/1980,14/01/1980,gal328973@como.com
gal 328974,25421971,"[""b_2709""]",,,,,,14/01/1980,14/01/1980,gal328974@como.com
gal 328975,25421972,"[""b_2709""]",,,,,,14/01/1980,14/01/1980,gal328975@como.com
gal 328976,25421973,"[""b_2709""]",,,,,,14/01/1980,14/01/1980,gal328976@como.com
gal 328977,25421974,"[""b_2709""]",,,,,,14/01/1980,14/01/1980,gal328977@como.com
gal 328978,25421975,"[""b_2709""]",,,,,,14/01/1980,14/01/1980,gal328978@como.com
gal 328979,25421976,"[""b_2709""]",,,,,,14/01/1980,14/01/1980,gal328979@como.com
gal 328980,25421977,"[""b_2709""]",,,,,,14/01/1980,14/01/1980,gal328980@como.com
gal 328981,25421978,"[""b_2709""]",,,,,,14/01/1980,14/01/1980,gal328981@como.com
gal 328982,25421979,"[""b_2709""]",,,,,,14/01/1980,14/01/1980,gal328982@como.com
gal 328983,25421980,"[""b_2709""]",,,,,,14/01/1980,14/01/1980,gal328983@como.com
gal 328984,25421981,"[""b_2709""]",,,,,,14/01/1980,14/01/1980,gal328984@como.com
gal 328985,25421982,"[""b_2709""]",,,,,,14/01/1980,14/01/1980,gal328985@como.com
gal 328986,25421983,"[""b_2709""]",,,,,,14/01/1980,14/01/1980,gal328986@como.com
gal 328987,25421984,"[""b_2709""]",,,,,,14/01/1980,14/01/1980,gal328987@como.com
gal 328988,25421985,"[""b_2709""]",,,,,,14/01/1980,14/01/1980,gal328988@como.com
gal 328989,25421986,"[""b_2709""]",,,,,,14/01/1980,14/01/1980,gal328989@como.com
gal 328990,25421987,"[""b_2709""]",,,,,,14/01/1980,14/01/1980,gal328990@como.com
gal 328991,25421988,"[""b_2709""]",,,,,,14/01/1980,14/01/1980,gal328991@como.com
gal 328992,25421989,"[""b_2709""]",,,,,,14/01/1980,14/01/1980,gal328992@como.com
gal 328993,25421990,"[""b_2709""]",,,,,,14/01/1980,14/01/1980,gal328993@como.com
gal 328994,25421991,"[""b_2709""]",,,,,,14/01/1980,14/01/1980,gal328994@como.com
gal 328995,25421992,"[""b_2709""]",,,,,,14/01/1980,14/01/1980,gal328995@como.com
gal 328996,25421993,"[""b_2709""]",,,,,,14/01/1980,14/01/1980,gal328996@como.com
gal 328997,25421994,"[""b_2709""]",,,,,,14/01/1980,14/01/1980,gal328997@como.com
gal 328998,25421995,"[""b_2709""]",,,,,,14/01/1980,14/01/1980,gal328998@como.com
gal 328999,25421996,"[""b_2709""]",,,,,,14/01/1980,14/01/1980,gal328999@como.com
gal 329000,25421997,"[""b_2709""]",,,,,,14/01/1980,14/01/1980,gal329000@como.com
gal 329001,25421998,"[""b_2709""]",,,,,,14/01/1980,14/01/1980,gal329001@como.com
gal 329002,25421999,"[""b_2709""]",,,,,,14/01/1980,14/01/1980,gal329002@como.com
gal 329003,25422000,"[""b_2709""]",,,,,,14/01/1980,14/01/1980,gal329003@como.com
gal 329004,25422001,"[""b_2709""]",,,,,,14/01/1980,14/01/1980,gal329004@como.com
gal 329005,25422002,"[""b_2709""]",,,,,,14/01/1980,14/01/1980,gal329005@como.com
gal 329006,25422003,"[""b_2709""]",,,,,,14/01/1980,14/01/1980,gal329006@como.com
gal 329007,25422004,"[""b_2709""]",,,,,,14/01/1980,14/01/1980,gal329007@como.com
gal 329008,25422005,"[""b_2709""]",,,,,,14/01/1980,14/01/1980,gal329008@como.com
gal 329009,25422006,"[""b_2709""]",,,,,,14/01/1980,14/01/1980,gal329009@como.com
gal 329010,25422007,"[""b_2709""]",,,,,,14/01/1980,14/01/1980,gal329010@como.com
gal 329011,25422008,"[""b_2709""]",,,,,,14/01/1980,14/01/1980,gal329011@como.com
gal 329012,25422009,"[""b_2709""]",,,,,,14/01/1980,14/01/1980,gal329012@como.com
gal 329013,25422010,"[""b_2709""]",,,,,,14/01/1980,14/01/1980,gal329013@como.com
gal 329014,25422011,"[""b_2709""]",,,,,,14/01/1980,14/01/1980,gal329014@como.com
gal 329015,25422012,"[""b_2709""]",,,,,,14/01/1980,14/01/1980,gal329015@como.com
gal 329016,25422013,"[""b_2709""]",,,,,,14/01/1980,14/01/1980,gal329016@como.com
gal 329017,25422014,"[""b_2709""]",,,,,,14/01/1980,14/01/1980,gal329017@como.com
gal 329018,25422015,"[""b_2709""]",,,,,,14/01/1980,14/01/1980,gal329018@como.com
gal 329019,25422016,"[""b_2709""]",,,,,,14/01/1980,14/01/1980,gal329019@como.com
gal 329020,25422017,"[""b_2709""]",,,,,,14/01/1980,14/01/1980,gal329020@como.com
gal 329021,25422018,"[""b_2709""]",,,,,,14/01/1980,14/01/1980,gal329021@como.com
gal 329022,25422019,"[""b_2709""]",,,,,,14/01/1980,14/01/1980,gal329022@como.com
gal 329023,25422020,"[""b_2709""]",,,,,,14/01/1980,14/01/1980,gal329023@como.com
gal 329024,25422021,"[""b_2709""]",,,,,,14/01/1980,14/01/1980,gal329024@como.com
gal 329025,25422022,"[""b_2709""]",,,,,,14/01/1980,14/01/1980,gal329025@como.com
gal 329026,25422023,"[""b_2709""]",,,,,,14/01/1980,14/01/1980,gal329026@como.com
gal 329027,25422024,"[""b_2709""]",,,,,,14/01/1980,14/01/1980,gal329027@como.com
gal 329028,25422025,"[""b_2709""]",,,,,,14/01/1980,14/01/1980,gal329028@como.com
gal 329029,25422026,"[""b_2709""]",,,,,,14/01/1980,14/01/1980,gal329029@como.com
gal 329030,25422027,"[""b_2709""]",,,,,,14/01/1980,14/01/1980,gal329030@como.com
gal 329031,25422028,"[""b_2709""]",,,,,,14/01/1980,14/01/1980,gal329031@como.com
gal 329032,25422029,"[""b_2709""]",,,,,,14/01/1980,14/01/1980,gal329032@como.com
gal 329033,25422030,"[""b_2709""]",,,,,,14/01/1980,14/01/1980,gal329033@como.com
gal 329034,25422031,"[""b_2709""]",,,,,,14/01/1980,14/01/1980,gal329034@como.com
gal 329035,25422032,"[""b_2709""]",,,,,,14/01/1980,14/01/1980,gal329035@como.com
gal 329036,25422033,"[""b_2709""]",,,,,,14/01/1980,14/01/1980,gal329036@como.com
gal 329037,25422034,"[""b_2709""]",,,,,,14/01/1980,14/01/1980,gal329037@como.com
gal 329038,25422035,"[""b_2709""]",,,,,,14/01/1980,14/01/1980,gal329038@como.com
gal 329039,25422036,"[""b_2709""]",,,,,,14/01/1980,14/01/1980,gal329039@como.com
gal 329040,25422037,"[""b_2709""]",,,,,,14/01/1980,14/01/1980,gal329040@como.com
gal 329041,25422038,"[""b_2709""]",,,,,,14/01/1980,14/01/1980,gal329041@como.com
gal 329042,25422039,"[""b_2709""]",,,,,,14/01/1980,14/01/1980,gal329042@como.com
gal 329043,25422040,"[""b_2709""]",,,,,,14/01/1980,14/01/1980,gal329043@como.com
gal 329044,25422041,"[""b_2709""]",,,,,,14/01/1980,14/01/1980,gal329044@como.com
gal 329045,25422042,"[""b_2709""]",,,,,,14/01/1980,14/01/1980,gal329045@como.com
gal 329046,25422043,"[""b_2709""]",,,,,,14/01/1980,14/01/1980,gal329046@como.com
gal 329047,25422044,"[""b_2709""]",,,,,,14/01/1980,14/01/1980,gal329047@como.com
gal 329048,25422045,"[""b_2709""]",,,,,,14/01/1980,14/01/1980,gal329048@como.com
gal 329049,25422046,"[""b_2709""]",,,,,,14/01/1980,14/01/1980,gal329049@como.com
gal 329050,25422047,"[""b_2709""]",,,,,,14/01/1980,14/01/1980,gal329050@como.com
gal 329051,25422048,"[""b_2709""]",,,,,,14/01/1980,14/01/1980,gal329051@como.com
gal 329052,25422049,"[""b_2709""]",,,,,,14/01/1980,14/01/1980,gal329052@como.com
gal 329053,25422050,"[""b_2709""]",,,,,,14/01/1980,14/01/1980,gal329053@como.com
gal 329054,25422051,"[""b_2709""]",,,,,,14/01/1980,14/01/1980,gal329054@como.com
gal 329055,25422052,"[""b_2709""]",,,,,,14/01/1980,14/01/1980,gal329055@como.com
gal 329056,25422053,"[""b_2709""]",,,,,,14/01/1980,14/01/1980,gal329056@como.com
gal 329057,25422054,"[""b_2709""]",,,,,,14/01/1980,14/01/1980,gal329057@como.com
gal 329058,25422055,"[""b_2709""]",,,,,,14/01/1980,14/01/1980,gal329058@como.com
gal 329059,25422056,"[""b_2709""]",,,,,,14/01/1980,14/01/1980,gal329059@como.com
gal 329060,25422057,"[""b_2709""]",,,,,,14/01/1980,14/01/1980,gal329060@como.com
gal 329061,25422058,"[""b_2709""]",,,,,,14/01/1980,14/01/1980,gal329061@como.com
gal 329062,25422059,"[""b_2709""]",,,,,,14/01/1980,14/01/1980,gal329062@como.com
gal 329063,25422060,"[""b_2709""]",,,,,,14/01/1980,14/01/1980,gal329063@como.com
gal 329064,25422061,"[""b_2709""]",,,,,,14/01/1980,14/01/1980,gal329064@como.com
gal 329065,25422062,"[""b_2709""]",,,,,,14/01/1980,14/01/1980,gal329065@como.com
gal 329066,25422063,"[""b_2709""]",,,,,,14/01/1980,14/01/1980,gal329066@como.com
gal 329067,25422064,"[""b_2709""]",,,,,,14/01/1980,14/01/1980,gal329067@como.com
gal 329068,25422065,"[""b_2709""]",,,,,,14/01/1980,14/01/1980,gal329068@como.com
gal 329069,25422066,"[""b_2709""]",,,,,,14/01/1980,14/01/1980,gal329069@como.com
gal 329070,25422067,"[""b_2709""]",,,,,,14/01/1980,14/01/1980,gal329070@como.com
gal 329071,25422068,"[""b_2709""]",,,,,,14/01/1980,14/01/1980,gal329071@como.com
gal 329072,25422069,"[""b_2709""]",,,,,,14/01/1980,14/01/1980,gal329072@como.com
gal 329073,25422070,"[""b_2709""]",,,,,,14/01/1980,14/01/1980,gal329073@como.com
gal 329074,25422071,"[""b_2709""]",,,,,,14/01/1980,14/01/1980,gal329074@como.com
gal 329075,25422072,"[""b_2709""]",,,,,,14/01/1980,14/01/1980,gal329075@como.com
gal 329076,25422073,"[""b_2709""]",,,,,,14/01/1980,14/01/1980,gal329076@como.com
gal 329077,25422074,"[""b_2709""]",,,,,,14/01/1980,14/01/1980,gal329077@como.com
gal 329078,25422075,"[""b_2709""]",,,,,,14/01/1980,14/01/1980,gal329078@como.com
gal 329079,25422076,"[""b_2709""]",,,,,,14/01/1980,14/01/1980,gal329079@como.com
gal 329080,25422077,"[""b_2709""]",,,,,,14/01/1980,14/01/1980,gal329080@como.com
gal 329081,25422078,"[""b_2709""]",,,,,,14/01/1980,14/01/1980,gal329081@como.com
gal 329082,25422079,"[""b_2709""]",,,,,,14/01/1980,14/01/1980,gal329082@como.com
gal 329083,25422080,"[""b_2709""]",,,,,,14/01/1980,14/01/1980,gal329083@como.com
gal 329084,25422081,"[""b_2709""]",,,,,,14/01/1980,14/01/1980,gal329084@como.com
gal 329085,25422082,"[""b_2709""]",,,,,,14/01/1980,14/01/1980,gal329085@como.com
gal 329086,25422083,"[""b_2709""]",,,,,,14/01/1980,14/01/1980,gal329086@como.com
gal 329087,25422084,"[""b_2709""]",,,,,,14/01/1980,14/01/1980,gal329087@como.com
gal 329088,25422085,"[""b_2709""]",,,,,,14/01/1980,14/01/1980,gal329088@como.com
gal 329089,25422086,"[""b_2709""]",,,,,,14/01/1980,14/01/1980,gal329089@como.com
gal 329090,25422087,"[""b_2709""]",,,,,,14/01/1980,14/01/1980,gal329090@como.com
gal 329091,25422088,"[""b_2709""]",,,,,,14/01/1980,14/01/1980,gal329091@como.com
gal 329092,25422089,"[""b_2709""]",,,,,,14/01/1980,14/01/1980,gal329092@como.com
gal 329093,25422090,"[""b_2709""]",,,,,,14/01/1980,14/01/1980,gal329093@como.com
gal 329094,25422091,"[""b_2709""]",,,,,,14/01/1980,14/01/1980,gal329094@como.com
gal 329095,25422092,"[""b_2709""]",,,,,,14/01/1980,14/01/1980,gal329095@como.com
gal 329096,25422093,"[""b_2709""]",,,,,,14/01/1980,14/01/1980,gal329096@como.com
gal 329097,25422094,"[""b_2709""]",,,,,,14/01/1980,14/01/1980,gal329097@como.com
gal 329098,25422095,"[""b_2709""]",,,,,,14/01/1980,14/01/1980,gal329098@como.com
gal 329099,25422096,"[""b_2709""]",,,,,,14/01/1980,14/01/1980,gal329099@como.com
gal 329100,25422097,"[""b_2709""]",,,,,,14/01/1980,14/01/1980,gal329100@como.com
gal 329101,25422098,"[""b_2709""]",,,,,,14/01/1980,14/01/1980,gal329101@como.com
gal 329102,25422099,"[""b_2709""]",,,,,,14/01/1980,14/01/1980,gal329102@como.com
gal 329103,25422100,"[""b_2709""]",,,,,,14/01/1980,14/01/1980,gal329103@como.com
gal 329104,25422101,"[""b_2709""]",,,,,,14/01/1980,14/01/1980,gal329104@como.com
gal 329105,25422102,"[""b_2709""]",,,,,,14/01/1980,14/01/1980,gal329105@como.com
gal 329106,25422103,"[""b_2709""]",,,,,,14/01/1980,14/01/1980,gal329106@como.com
gal 329107,25422104,"[""b_2709""]",,,,,,14/01/1980,14/01/1980,gal329107@como.com
gal 329108,25422105,"[""b_2709""]",,,,,,14/01/1980,14/01/1980,gal329108@como.com
gal 329109,25422106,"[""b_2709""]",,,,,,14/01/1980,14/01/1980,gal329109@como.com
gal 329110,25422107,"[""b_2709""]",,,,,,14/01/1980,14/01/1980,gal329110@como.com
gal 329111,25422108,"[""b_2709""]",,,,,,14/01/1980,14/01/1980,gal329111@como.com
gal 329112,25422109,"[""b_2709""]",,,,,,14/01/1980,14/01/1980,gal329112@como.com
gal 329113,25422110,"[""b_2709""]",,,,,,14/01/1980,14/01/1980,gal329113@como.com
gal 329114,25422111,"[""b_2709""]",,,,,,14/01/1980,14/01/1980,gal329114@como.com
gal 329115,25422112,"[""b_2709""]",,,,,,14/01/1980,14/01/1980,gal329115@como.com
gal 329116,25422113,"[""b_2709""]",,,,,,14/01/1980,14/01/1980,gal329116@como.com
