{
	"Data": {
		"ValidTime": [],
		"RequiredPunches": "",
		"RequiresSecretCode": "N"
	},
	"Token": "%s",
	"UsableConditions": [{
		"Condition": [{
			"Name": "dueDateCondition",
			"FailString": "We are sorry, but this is not valid anymore.",
			"FailStringAppText": "assetTemplate.condition.DueDate"
		}, {
			"Name": "startDateCondition",
			"FailString": "Its not valid yet!",
			"FailStringAppText": "assetTemplate.condition.StartDate"
		}]
	}],
	"RedeemAction": {
		"condition": {
			"type": "CallExpression",
			"arguments": [{
				"type": "MemberExpression",
				"computed": false,
				"object": {
					"type": "MemberExpression",
					"computed": false,
					"object": {
						"type": "Identifier",
						"name": "context"
					},
					"property": {
						"type": "Identifier",
						"name": "testAssetConditions"
					}
				},
				"property": {
					"type": "Identifier",
					"name": "Result"
				}
			}, {
				"type": "CallExpression",
				"arguments": [{
					"type": "ArrayExpression",
					"elements": [{
						"type": "Literal",
						"value": "registered",
						"raw": "'registered'"
					}]
				}, {
					"type": "MemberExpression",
					"computed": false,
					"object": {
						"type": "MemberExpression",
						"computed": false,
						"object": {
							"type": "Identifier",
							"name": "context"
						},
						"property": {
							"type": "Identifier",
							"name": "Membership"
						}
					},
					"property": {
						"type": "Identifier",
						"name": "MembershipStatus"
					}
				}],
				"callee": {
					"type": "MemberExpression",
					"computed": false,
					"object": {
						"type": "Identifier",
						"name": "led"
					},
					"property": {
						"type": "Identifier",
						"name": "sourceContainsAtLeastOneValue"
					}
				}
			}],
			"callee": {
				"type": "Identifier",
				"name": "led.and"
			}
		},
		"action": {
			"type": "actionFlow",
			"flowType": "onlyFirst",
			"smartActions": [{
				"condition": {
					"type": "CallExpression",
					"arguments": [{
						"type": "BinaryExpression",
						"operator": "==",
						"left": {
							"type": "MemberExpression",
							"computed": false,
							"object": {
								"type": "Identifier",
								"name": "context"
							},
							"property": {
								"type": "Identifier",
								"name": "RedeemType"
							}
						},
						"right": {
							"type": "Literal",
							"value": "RedeemGetBenefits",
							"raw": "'RedeemGetBenefits'"
						}
					}],
					"callee": {
						"type": "Identifier",
						"name": "led.and"
					}
				},
				"action": {
					"type": "actionFlow",
					"flowType": "onlyFirst",
					"smartActions": [{
						"condition": {
							"type": "CallExpression",
							"arguments": [{
								"type": "CallExpression",
								"callee": {
									"type": "MemberExpression",
									"computed": false,
									"object": {
										"type": "Identifier",
										"name": "led"
									},
									"property": {
										"type": "Identifier",
										"name": "sourceContainsAtLeastOneValue"
									}
								},
								"arguments": [{
									"type": "MemberExpression",
									"computed": false,
									"object": {
										"type": "MemberExpression",
										"computed": false,
										"object": {
											"type": "Identifier",
											"name": "context"
										},
										"property": {
											"type": "Identifier",
											"name": "Purchase"
										}
									},
									"property": {
										"type": "Identifier",
										"name": "Tags"
									}
								}, {
									"type": "ArrayExpression",
									"elements": [{
										"type": "Literal",
										"value": "1",
										"raw": "'1'"
									}]
								}]
							}],
							"callee": {
								"type": "Identifier",
								"name": "led.and"
							}
						},
						"action": {
							"type": "actionFlow",
							"flowType": "all",
							"smartActions": [{
								"action": {
									"type": "addDealCodes",
									"dealCodes": {
										"Type": "Compute",
										"function": "addDealCodes",
										"params": {
											"dealCodes": [{
												"Code": 1234
											}]
										}
									}
								}
							}]
						}
					},{
						"condition": {
							"type": "CallExpression",
							"arguments": [{
								"type": "CallExpression",
								"callee": {
									"type": "MemberExpression",
									"computed": false,
									"object": {
										"type": "Identifier",
										"name": "led"
									},
									"property": {
										"type": "Identifier",
										"name": "sourceContainsAtLeastOneValue"
									}
								},
								"arguments": [{
									"type": "MemberExpression",
									"computed": false,
									"object": {
										"type": "MemberExpression",
										"computed": false,
										"object": {
											"type": "Identifier",
											"name": "context"
										},
										"property": {
											"type": "Identifier",
											"name": "Purchase"
										}
									},
									"property": {
										"type": "Identifier",
										"name": "Tags"
									}
								}, {
									"type": "ArrayExpression",
									"elements": [{
										"type": "Literal",
										"value": "2",
										"raw": "'2'"
									}]
								}]
							}],
							"callee": {
								"type": "Identifier",
								"name": "led.and"
							}
						},
						"action": {
							"type": "actionFlow",
							"flowType": "all",
							"smartActions": [{
								"action": {
									"type": "addDealCodes",
									"dealCodes": {
										"Type": "Compute",
										"function": "addDealCodes",
										"params": {
											"dealCodes": [{
												"Code": 2345
											}]
										}
									}
								}
							}]
						}
					},{
						"condition": {
							"type": "CallExpression",
							"arguments": [{
								"type": "CallExpression",
								"callee": {
									"type": "MemberExpression",
									"computed": false,
									"object": {
										"type": "Identifier",
										"name": "led"
									},
									"property": {
										"type": "Identifier",
										"name": "sourceContainsAtLeastOneValue"
									}
								},
								"arguments": [{
									"type": "MemberExpression",
									"computed": false,
									"object": {
										"type": "MemberExpression",
										"computed": false,
										"object": {
											"type": "Identifier",
											"name": "context"
										},
										"property": {
											"type": "Identifier",
											"name": "Purchase"
										}
									},
									"property": {
										"type": "Identifier",
										"name": "Tags"
									}
								}, {
									"type": "ArrayExpression",
									"elements": [{
										"type": "Literal",
										"value": "3",
										"raw": "'3'"
									}]
								}]
							}],
							"callee": {
								"type": "Identifier",
								"name": "led.and"
							}
						},
						"action": {
							"type": "actionFlow",
							"flowType": "all",
							"smartActions": [{
								"action": {
									"type": "addDealCodes",
									"dealCodes": {
										"Type": "Compute",
										"function": "addDealCodes",
										"params": {
											"dealCodes": [{
												"Code": 3456
											}]
										}
									}
								}
							}]
						}
					},{
						"condition": {
							"type": "CallExpression",
							"arguments": [{
								"type": "CallExpression",
								"callee": {
									"type": "MemberExpression",
									"computed": false,
									"object": {
										"type": "Identifier",
										"name": "led"
									},
									"property": {
										"type": "Identifier",
										"name": "sourceContainsAtLeastOneValue"
									}
								},
								"arguments": [{
									"type": "MemberExpression",
									"computed": false,
									"object": {
										"type": "MemberExpression",
										"computed": false,
										"object": {
											"type": "Identifier",
											"name": "context"
										},
										"property": {
											"type": "Identifier",
											"name": "Purchase"
										}
									},
									"property": {
										"type": "Identifier",
										"name": "Tags"
									}
								}, {
									"type": "ArrayExpression",
									"elements": [{
										"type": "Literal",
										"value": "4",
										"raw": "'4'"
									}]
								}]
							}],
							"callee": {
								"type": "Identifier",
								"name": "led.and"
							}
						},
						"action": {
							"type": "actionFlow",
							"flowType": "all",
							"smartActions": [{
								"action": {
									"type": "addDealCodes",
									"dealCodes": {
										"Type": "Compute",
										"function": "addDealCodes",
										"params": {
											"dealCodes": [{
												"Code": 4567
											}]
										}
									}
								}
							}]
						}
					},{
						"condition": {
							"type": "CallExpression",
							"arguments": [{
								"type": "CallExpression",
								"callee": {
									"type": "MemberExpression",
									"computed": false,
									"object": {
										"type": "Identifier",
										"name": "led"
									},
									"property": {
										"type": "Identifier",
										"name": "sourceContainsAtLeastOneValue"
									}
								},
								"arguments": [{
									"type": "MemberExpression",
									"computed": false,
									"object": {
										"type": "MemberExpression",
										"computed": false,
										"object": {
											"type": "Identifier",
											"name": "context"
										},
										"property": {
											"type": "Identifier",
											"name": "Purchase"
										}
									},
									"property": {
										"type": "Identifier",
										"name": "Tags"
									}
								}, {
									"type": "ArrayExpression",
									"elements": [{
										"type": "Literal",
										"value": "5",
										"raw": "'5'"
									}]
								}]
							}],
							"callee": {
								"type": "Identifier",
								"name": "led.and"
							}
						},
						"action": {
							"type": "actionFlow",
							"flowType": "all",
							"smartActions": [{
								"action": {
									"type": "addDealCodes",
									"dealCodes": {
										"Type": "Compute",
										"function": "addDealCodes",
										"params": {
											"dealCodes": [{
												"Code": 5678
											}]
										}
									}
								}
							}]
						}
					},{
						"condition": {
							"type": "CallExpression",
							"arguments": [{
								"type": "CallExpression",
								"callee": {
									"type": "MemberExpression",
									"computed": false,
									"object": {
										"type": "Identifier",
										"name": "led"
									},
									"property": {
										"type": "Identifier",
										"name": "sourceContainsAtLeastOneValue"
									}
								},
								"arguments": [{
									"type": "MemberExpression",
									"computed": false,
									"object": {
										"type": "MemberExpression",
										"computed": false,
										"object": {
											"type": "Identifier",
											"name": "context"
										},
										"property": {
											"type": "Identifier",
											"name": "Purchase"
										}
									},
									"property": {
										"type": "Identifier",
										"name": "Tags"
									}
								}, {
									"type": "ArrayExpression",
									"elements": [{
										"type": "Literal",
										"value": "1",
										"raw": "'1'"
									}]
								}]
							}],
							"callee": {
								"type": "Identifier",
								"name": "led.and"
							}
						},
						"action": {
							"type": "actionFlow",
							"flowType": "all",
							"smartActions": [{
								"action": {
									"type": "addDealCodes",
									"dealCodes": {
										"Type": "Compute",
										"function": "addDealCodes",
										"params": {
											"dealCodes": [{
												"Code": 1234
											}]
										}
									}
								}
							}]
						}
					}]
				},
				"elseAction": {
					"type": "actionFlow",
					"flowType": "all",
					"smartActions": [{
						"action": {
							"_skip": true,
							"type": "addToResponse",
							"data": {
								"Type": "Compute",
								"function": "evalExpression",
								"params": {
									"expression": {
										"type": "MemberExpression",
										"computed": false,
										"object": {
											"type": "Identifier",
											"name": "context"
										},
										"property": {
											"type": "Identifier",
											"name": "testAssetConditions"
										}
									}
								}
							}
						}
					}]
				}
			}]
		},
		"elseAction": {
			"type": "actionFlow",
			"flowType": "all",
			"smartActions": [{
				"action": {
					"_skip": true,
					"type": "addToResponse",
					"data": {
						"Type": "Compute",
						"function": "evalExpression",
						"params": {
							"expression": {
								"type": "MemberExpression",
								"computed": false,
								"object": {
									"type": "Identifier",
									"name": "context"
								},
								"property": {
									"type": "Identifier",
									"name": "testAssetConditions"
								}
							}
						}
					}
				}
			}]
		},
		"calcs": [{
			"id": "dueDateCondition",
			"calc": {
				"Type": "Compute",
				"function": "dueDateCondition",
				"params": {}
			}
		}, {
			"id": "startDateCondition",
			"calc": {
				"Type": "Compute",
				"function": "startDateCondition",
				"params": {}
			}
		}, {
			"id": "Employee",
			"calc": {
				"Type": "SpecialQuery",
				"queryType": "Employee",
				"params": {}
			}
		}, {
			"id": "testAssetConditions",
			"calc": {
				"Type": "Compute",
				"function": "testAssetConditions",
				"params": {}
			}
		}, {
			"id": "Membership",
			"calc": {
				"Type": "SpecialQuery",
				"queryType": "Membership",
				"params": {}
			}
		}, {
			"id": "TimeZone",
			"calc": {
				"Type": "Compute",
				"function": "evalExpression",
				"params": {
					"expression": {
						"type": "Literal",
						"value": "Asia\/Jerusalem",
						"raw": "'Asia\/Jerusalem'"
					}
				}
			}
		}]
	},
	"NotifyAction": {
		"action": {
			"type": "actionFlow",
			"flowType": "all",
			"smartActions": [{
				"action": {
					"type": "sendPersonalPush",
					"actionTags": "",
					"params": {
						"pushdata": {
							"actions": []
						}
					}
				}
			}]
		},
		"calcs": [{
			"id": "TimeZone",
			"calc": {
				"Type": "Compute",
				"function": "evalExpression",
				"params": {
					"expression": {
						"type": "Literal",
						"value": "Asia\/Jerusalem",
						"raw": "'Asia\/Jerusalem'"
					}
				}
			}
		}, {
			"id": "dateFormat",
			"calc": {
				"Type": "Compute",
				"function": "evalExpression",
				"params": {
					"expression": {
						"type": "Literal",
						"value": "DD\/MM\/YYYY",
						"raw": "'DD\/MM\/YYYY'"
					}
				}
			}
		}, {
			"id": "Membership",
			"calc": {
				"Type": "SpecialQuery",
				"queryType": "Membership",
				"params": {}
			}
		}]
	},
	"ValidAtLocationIDs": ["%s"],
	"DataOverride": {
		"ValidFrom": "31\/10\/2017 22:00:00",
		"ValidUntil": "28\/02\/2018 21:59:59",
		"PunchCardType": "v2",
		"AllowMultiPunch": "N",
		"CodeText": "gift deal code auto generated code",
		"AllowEmployeePunch": "Y",
		"PunchCardPrize": "",
		"PushMessage": "",
		"BackgroundImage": "image_medium_9125",
		"Prepaid": "N",
		"allowManualPunch": "",
		"allow_top_up": "0",
		"BranchID": [],
		"UserTag": [],
		"ShortCodeData": {
			"ExpirationSeconds": 31449600
		},
		"ValidTime": [],
		"ImageResourceInfo": {
			"Default": "Background",
			"Background": {
				"Namespace": "location_dev_512",
				"ResourceId": "image_medium_9125",
				"Version": "-1"
			}
		}
	},
	"Template": "%s",
	"Type": "gift",
	"Name": "gift deal code auto generated code_%s",
	"Description": "gift deal code auto generated code",
	"Value": "0",
	"Cost": "0",
	"StockTracked": "N",
	"Active": "Y",
	"Tag": "sla"
}